{
    "total_page": 2,
    "current_page": 1,
    "per_page": 7,
    "message": "success",
    "data": [
        {
            "id_product": "01",
            "name_product": "Product 01",
            "description_product": "Lorem Ipsum is simply dummy text of the printing and typesetting industry.",
            "price_product": 1000.0,
            "img_product": "product1"
        },
        {
            "id_product": "02",
            "name_product": "Product 02",
            "description_product": "Lorem Ipsum is..",
            "price_product": 2000.0,
            "img_product": "product2"
        },
        {
            "id_product": "03",
            "name_product": "Product 03",
            "description_product": "Lorem Ipsum is simply dummy text of the printing and typesetting industry.",
            "price_product": 123000.0,
            "img_product": "product3"
        },
        {
            "id_product": "04",
            "name_product": "Product 04",
            "description_product": "Lorem Ipsum is simply dummy text of the printing and typesetting industry.",
            "price_product": 118200.0,
            "img_product": "product4"
        },
        {
            "id_product": "05",
            "name_product": "Product 05",
            "description_product": "Lorem Ipsum is simply dummy text of the printing and typesetting industry.",
            "price_product": 34200.0,
            "img_product": "product5"
        },
        {
            "id_product": "06",
            "name_product": "Product 06",
            "description_product": "Lorem Ipsum",
            "price_product": 1000.0,
            "img_product": "product1"
        },
        {
            "id_product": "07",
            "name_product": "Product 07",
            "description_product": "Lorem Ipsum is simply dummy text of the printing and typesetting industry.",
            "price_product": 1000.0,
            "img_product": "product7"
        },
        {
            "id_product": "08",
            "name_product": "Product 08",
            "description_product": "Lorem Ipsum is simply dummy text of the printing and typesetting industry.",
            "price_product": 13543656.0,
            "img_product": "product8"
        },
        {
            "id_product": "09",
            "name_product": "Product 09",
            "description_product": "Lorem Ipsum is simply dummy text of the printing and typesetting industry.",
            "price_product": 2000.0,
            "img_product": "product9"
        },
        {
            "id_product": "10",
            "name_product": "Product 10",
            "description_product": "Lorem Ipsum is simply dummy text of the printing and typesetting industry.",
            "price_product": 1231784,
            "img_product": "product10"
        },
        {
            "id_product": "11",
            "name_product": "Product 11",
            "description_product": "Lorem Ipsum is simply dummy text of the printing and typesetting industry.",
            "price_product": 12313000.0,
            "img_product": "product11"
        },
        {
            "id_product": "12",
            "name_product": "Product 12",
            "description_product": "o Desription",
            "price_product": 1000.0,
            "img_product": "product12"
        },
        {
            "id_product": "13",
            "name_product": "Product 13",
            "description_product": "Lorem Ipsum is simply dummy text of the printing and typesetting industry.",
            "price_product": 839489,
            "img_product": "product13"
        },
        {
            "id_product": "14",
            "name_product": "Product 14",
            "description_product": "industry.",
            "price_product": 839489,
            "img_product": "product14"
        }
    ]
}
